[
 {
 "trailerType": "Flat Bed Trailer",
 "trailerCode": 1,
 "trailerWeight": 21.77243,
 "trailerLength": 16.1544,
 "trailerHeight": 2.59
 },
 {
 "trailerType": "Enclosed Trailer",
 "trailerCode": 1,
 "trailerWeight": 20.41166,
 "trailerLength": 16.1544,
 "trailerHeight": 2.4384
 },
 {
 "trailerType": "Dry Van",
 "trailerCode": 1,
 "trailerWeight": 20.41166,
 "trailerLength": 16.1544,
 "trailerHeight": 2.4384
 },
 {
 "trailerType": "Enclosed Trailer",
 "trailerCode": 1,
 "trailerWeight": 16.15,
 "trailerLength": 30.0,
 "trailerHeight": 2.4384
 },
 {
 "trailerType": "Refrigerated Trailer",
 "trailerCode": 1,
 "trailerWeight": 20.41166,
 "trailerLength": 16.1544,
 "trailerHeight": 2.4384
 },
 {
 "trailerType": "Reefers",
 "trailerCode": 1,
 "trailerWeight": 20.41166,
 "trailerLength": 16.1544,
 "trailerHeight": 2.4384
 },
 {
 "trailerType": "Lowboy Trailer",
 "trailerCode": 1,
 "trailerWeight": 18.14369,
 "trailerLength": 9.02,
 "trailerHeight": 3.66
 },
 {
 "trailerType": "Step Deck/Single Drop Trailer",
 "trailerCode": 1,
 "trailerWeight": 21.77243,
 "trailerLength": 16.1544,
 "trailerHeight": 3.084
 },
 {
 "trailerType": "Extendable Flat Stretch Trailer",
 "trailerCode": 1,
 "trailerWeight": 19.50447,
 "trailerLength": 24.384,
 "trailerHeight": 2.5908
 },
 {
 "trailerType": "Stretch Single Drop Deck Trailer",
 "trailerCode": 1,
 "trailerWeight": 20.41166,
 "trailerLength": 19.2024,
 "trailerHeight": 3.084
 },
 {
 "trailerType": "Stretch Double Drop Trailer",
 "trailerCode": 1,
 "trailerWeight": 20.41166,
 "trailerLength": 19.812,
 "trailerHeight": 3.53568
 },
 {
 "trailerType": "Extended Double Drop Trailers",
 "trailerCode": 1,
 "trailerWeight": 18.14369,
 "trailerLength": 15.24,
 "trailerHeight": 3.53568
 },
 {
 "trailerType": "RGN",
 "trailerCode": 1,
 "trailerWeight": 19.05088,
 "trailerLength": 8.8392,
 "trailerHeight": 3.53568
 },
 {
 "trailerType": "Stretch RGN",
 "trailerCode": 1,
 "trailerWeight": 68.03885,
 "trailerLength": 19.812,
 "trailerHeight": 3.53568
 },
 {
 "trailerType": "Conestoga Trailers",
 "trailerCode": 1,
 "trailerWeight": 21.77243,
 "trailerLength": 16.1544,
 "trailerHeight": 2.4384
 },
 {
 "trailerType": "Side Kit Trailers",
 "trailerCode": 1,
 "trailerWeight": 21.77243,
 "trailerLength": 16.1544,
 "trailerHeight": 2.62
 }
 ]
